{
    "id": "org.kde.kcalc",
    "branch": "master",
    "runtime": "org.kde.Platform",
    "runtime-version": "5.15-22.08",
    "sdk": "org.kde.Sdk",
    "command": "kcalc",
    "tags": ["nightly"],
    "desktop-file-name-suffix": " (Nightly)",
    "finish-args": ["--share=ipc", "--socket=x11", "--socket=wayland", "--filesystem=host" ],

    "modules": [
        {
            "name": "mpfr",
            "sources": [
                {
                    "type": "archive",
                    "url": "https://www.mpfr.org/mpfr-current/mpfr-4.1.0.tar.xz",
                    "sha256": "0c98a3f1732ff6ca4ea690552079da9c597872d30e96ec28414ee23c95558a7f",
                    "x-checker-data": {
                        "type": "anitya",
                        "project-id": 2019,
                        "stable-only": true,
                        "url-template": "https://www.mpfr.org/mpfr-$version/mpfr-$version.tar.xz"
                    }
                }
            ]
        },
        {
            "name": "kcalc",
            "buildsystem": "cmake-ninja",
            "sources": [ { "type": "git", "url": "https://invent.kde.org/kde/kcalc.git" } ]
        }
    ]
}
