{
    "id": "org.kde.kbounce",
    "branch": "master",
    "runtime": "org.kde.Platform",
    "runtime-version": "5.15-22.08",
    "sdk": "org.kde.Sdk",
    "command": "kbounce",
    "rename-icon": "kbounce",
    "tags": ["nightly"],
    "desktop-file-name-suffix": " (Nightly)",
    "finish-args": [
        "--share=ipc",
        "--socket=x11",
        "--socket=wayland",
        "--socket=pulseaudio",
        "--device=dri",
        "--filesystem=host"
    ],
    "modules": [
        "libkdegames.json",
        {
            "name": "kbounce",
            "buildsystem": "cmake-ninja",
            "sources": [
                { "type": "git", "url": "https://invent.kde.org/kde/kbounce.git" }
            ]
        }
    ]
}
